[gd_scene load_steps=8 format=2]

[ext_resource path="res://room/boss/Preboss.gd" type="Script" id=1]
[ext_resource path="res://room/boss/preboss.webp" type="Texture" id=2]
[ext_resource path="res://menu/dialogue/keys/key81.wav" type="AudioStream" id=3]
[ext_resource path="res://menu/hover.wav" type="AudioStream" id=4]
[ext_resource path="res://room/boss/vsboss.webp" type="Texture" id=5]

[sub_resource type="Animation" id=2]
resource_name = "begin"
length = 0.5
step = 0.5
tracks/0/type = "value"
tracks/0/path = NodePath("VsBg:position")
tracks/0/interp = 1
tracks/0/loop_wrap = true
tracks/0/imported = false
tracks/0/enabled = true
tracks/0/keys = {
"times": PoolRealArray( 0 ),
"transitions": PoolRealArray( 2 ),
"update": 0,
"values": [ Vector2( 512, 90 ) ]
}
tracks/1/type = "value"
tracks/1/path = NodePath("VsFg:position")
tracks/1/interp = 1
tracks/1/loop_wrap = true
tracks/1/imported = false
tracks/1/enabled = true
tracks/1/keys = {
"times": PoolRealArray( 0 ),
"transitions": PoolRealArray( 2 ),
"update": 0,
"values": [ Vector2( -160, 90 ) ]
}
tracks/2/type = "value"
tracks/2/path = NodePath("Door:scale")
tracks/2/interp = 1
tracks/2/loop_wrap = true
tracks/2/imported = false
tracks/2/enabled = true
tracks/2/keys = {
"times": PoolRealArray( 0, 0.5 ),
"transitions": PoolRealArray( 0.25, 1 ),
"update": 0,
"values": [ Vector2( 0, 1 ), Vector2( 1, 1 ) ]
}

[sub_resource type="Animation" id=1]
resource_name = "vs"
length = 8.0
step = 0.5
tracks/0/type = "value"
tracks/0/path = NodePath("VsBg:position")
tracks/0/interp = 1
tracks/0/loop_wrap = true
tracks/0/imported = false
tracks/0/enabled = true
tracks/0/keys = {
"times": PoolRealArray( 0, 0.5, 8 ),
"transitions": PoolRealArray( 2, 0.5, 1 ),
"update": 0,
"values": [ Vector2( 512, 90 ), Vector2( 208, 90 ), Vector2( 144, 90 ) ]
}
tracks/1/type = "value"
tracks/1/path = NodePath("VsFg:position")
tracks/1/interp = 1
tracks/1/loop_wrap = true
tracks/1/imported = false
tracks/1/enabled = true
tracks/1/keys = {
"times": PoolRealArray( 0, 0.5, 8 ),
"transitions": PoolRealArray( 2, 0.5, 1 ),
"update": 0,
"values": [ Vector2( -160, 90 ), Vector2( 16, 90 ), Vector2( 80, 90 ) ]
}
tracks/2/type = "value"
tracks/2/path = NodePath("Door:scale")
tracks/2/interp = 1
tracks/2/loop_wrap = true
tracks/2/imported = false
tracks/2/enabled = true
tracks/2/keys = {
"times": PoolRealArray( 0, 0.5 ),
"transitions": PoolRealArray( 2, 1 ),
"update": 0,
"values": [ Vector2( 1, 1 ), Vector2( 0, 0 ) ]
}

[node name="Preboss" type="Node2D"]
script = ExtResource( 1 )

[node name="Black" type="ColorRect" parent="."]
margin_right = 320.0
margin_bottom = 180.0
color = Color( 0, 0, 0, 1 )

[node name="Door" type="Sprite" parent="."]
position = Vector2( 218, 50 )
scale = Vector2( 1e-05, 1 )
texture = ExtResource( 2 )
offset = Vector2( -80, 40 )

[node name="VsBg" type="Sprite" parent="."]
position = Vector2( 512, 90 )
texture = ExtResource( 5 )
region_enabled = true
region_rect = Rect2( 0, 0, 352, 180 )

[node name="VsFg" type="Sprite" parent="."]
position = Vector2( -160, 90 )
texture = ExtResource( 5 )
region_enabled = true
region_rect = Rect2( 352, 0, 160, 180 )

[node name="OpenDoor" type="AudioStreamPlayer" parent="."]
stream = ExtResource( 3 )
volume_db = 6.0
pitch_scale = 0.5
autoplay = true
bus = "Sfx"

[node name="HeatDown" type="AudioStreamPlayer" parent="."]
stream = ExtResource( 4 )
pitch_scale = 8.0
bus = "Sfx"

[node name="Anim" type="AnimationPlayer" parent="."]
autoplay = "begin"
anims/begin = SubResource( 2 )
anims/vs = SubResource( 1 )
