[gd_scene load_steps=6 format=2]

[ext_resource path="res://menu/ui.png" type="Texture" id=1]
[ext_resource path="res://effects/Shadow.tscn" type="PackedScene" id=2]
[ext_resource path="res://props/QuestMarker.gd" type="Script" id=3]

[sub_resource type="Animation" id=3]
resource_name = "appear"
length = 0.3
tracks/0/type = "value"
tracks/0/path = NodePath(".:scale")
tracks/0/interp = 2
tracks/0/loop_wrap = true
tracks/0/imported = false
tracks/0/enabled = true
tracks/0/keys = {
"times": PoolRealArray( 0, 0.1, 0.2, 0.3 ),
"transitions": PoolRealArray( 1, 1, 1, 1 ),
"update": 0,
"values": [ Vector2( 2, 0 ), Vector2( 0.5, 1.5 ), Vector2( 1.2, 0.8 ), Vector2( 1, 1 ) ]
}

[sub_resource type="Animation" id=2]
resource_name = "noticeme"
loop = true
step = 0.25
tracks/0/type = "value"
tracks/0/path = NodePath(".:scale")
tracks/0/interp = 2
tracks/0/loop_wrap = true
tracks/0/imported = false
tracks/0/enabled = true
tracks/0/keys = {
"times": PoolRealArray( 0, 0.5 ),
"transitions": PoolRealArray( 1, 1 ),
"update": 0,
"values": [ Vector2( 1.2, 0.8 ), Vector2( 0.8, 1.2 ) ]
}

[node name="QuestMarker" type="Sprite"]
visible = false
scale = Vector2( 2, 1e-05 )
z_index = 99
texture = ExtResource( 1 )
offset = Vector2( 0, -12 )
region_enabled = true
region_rect = Rect2( 48, 32, 16, 16 )
script = ExtResource( 3 )

[node name="Anim" type="AnimationPlayer" parent="."]
autoplay = "noticeme"
anims/appear = SubResource( 3 )
anims/noticeme = SubResource( 2 )

[node name="Shadow" parent="." instance=ExtResource( 2 )]
show_behind_parent = true
position = Vector2( 0, -12 )
scale = Vector2( 0.4, 0.4 )

[connection signal="visibility_changed" from="." to="." method="_on_visibility_changed"]
