[gd_resource type="DynamicFont" load_steps=2 format=2]

[ext_resource path="res://menu/font/CompassGold.woff" type="DynamicFontData" id=1]

[resource]
outline_size = 2
outline_color = Color( 0, 0, 0, 1 )
extra_spacing_top = -2
extra_spacing_bottom = -2
font_data = ExtResource( 1 )
