[gd_scene load_steps=3 format=2]

[ext_resource path="res://bullets/Board.tscn" type="PackedScene" id=1]
[ext_resource path="res://bullets/TimeBoard.gd" type="Script" id=2]

[node name="WordBoard" instance=ExtResource( 1 )]
script = ExtResource( 2 )
threshold = 7

[node name="Polygon2D" parent="." index="2"]
polygon = PoolVector2Array( -64, -72, 48, -72, 48, -48, 56, -8, 72, 24, 56, 24, 64, 40, 48, 40, 48, 56, -64, 56 )

[node name="0" parent="SpawnPoints" index="0"]
position = Vector2( 104, 184 )

[node name="2" parent="SpawnPoints" index="2"]
position = Vector2( 168, 184 )

[node name="3" parent="SpawnPoints" index="3"]
position = Vector2( 200, 184 )

[node name="1" type="Polygon2D" parent="Results" index="0"]
position = Vector2( 0, 8 )
color = Color( 0.333333, 0.333333, 0.333333, 1 )
polygon = PoolVector2Array( 96, 56, 112, 56, 120, 48, 120, 56, 208, 56, 208, 32, 96, 32 )

[node name="2" type="Polygon2D" parent="Results" index="1"]
position = Vector2( 8, 0 )
color = Color( 0.333333, 0.333333, 0.333333, 1 )
polygon = PoolVector2Array( 88, 40, 80, 48, 80, 176, 88, 168 )

[node name="3" type="Polygon2D" parent="Results" index="2"]
position = Vector2( 8, 0 )
color = Color( 0.333333, 0.333333, 0.333333, 1 )
polygon = PoolVector2Array( 200, 168, 192, 176, 80, 176, 88, 168 )

[node name="4" type="Polygon2D" parent="Results" index="3"]
position = Vector2( 8, 0 )
color = Color( 0.333333, 0.333333, 0.333333, 1 )
polygon = PoolVector2Array( 200, 160, 88, 160, 88, 152, 88, 80, 96, 136, 104, 152, 200, 152 )

[node name="5" type="Polygon2D" parent="Results" index="4"]
position = Vector2( 8, 0 )
color = Color( 0.333333, 0.333333, 0.333333, 1 )
polygon = PoolVector2Array( 212, 144, 112, 144, 96, 112, 88, 64, 96, 104, 112, 136, 208, 136 )

[node name="6" type="Label" parent="Results" index="5"]
modulate = Color( 0.333333, 0.333333, 0.333333, 1 )
margin_left = 144.0
margin_top = 80.0
margin_right = 158.0
margin_bottom = 92.0
rect_scale = Vector2( 3, 3 )
text = "32"

[node name="7" type="Label" parent="Results" index="6"]
modulate = Color( 0.333333, 0.333333, 0.333333, 1 )
margin_left = 104.0
margin_top = 68.0
margin_right = 232.0
margin_bottom = 80.0
text = "B_TIME_WEEKDAY"

[node name="8" type="Label" parent="Results" index="7"]
modulate = Color( 0.333333, 0.333333, 0.333333, 1 )
margin_left = 104.0
margin_top = 68.0
margin_right = 203.0
margin_bottom = 80.0
text = "B_TIME_MONTH"
align = 2
