[gd_scene load_steps=5 format=2]

[ext_resource path="res://menu/font/font_outlined.tres" type="DynamicFont" id=1]
[ext_resource path="res://menu/bookClose.wav" type="AudioStream" id=2]
[ext_resource path="res://effects/puff.wav" type="AudioStream" id=3]

[sub_resource type="Animation" id=1]
resource_name = "debate_start"
length = 3.4
step = 0.2
tracks/0/type = "value"
tracks/0/path = NodePath("Ribbon:color")
tracks/0/interp = 1
tracks/0/loop_wrap = true
tracks/0/imported = false
tracks/0/enabled = true
tracks/0/keys = {
"times": PoolRealArray( 0, 0.5, 2.5, 3 ),
"transitions": PoolRealArray( 2, 1, 2, 1 ),
"update": 0,
"values": [ Color( 0, 0, 0, 0 ), Color( 0, 0, 0, 1 ), Color( 0, 0, 0, 1 ), Color( 0, 0, 0, 0 ) ]
}
tracks/1/type = "value"
tracks/1/path = NodePath("Debate:rect_position")
tracks/1/interp = 1
tracks/1/loop_wrap = true
tracks/1/imported = false
tracks/1/enabled = true
tracks/1/keys = {
"times": PoolRealArray( 0, 0.5, 2.5, 3 ),
"transitions": PoolRealArray( 2, 1, 2, 1 ),
"update": 0,
"values": [ Vector2( -200, 60 ), Vector2( 60, 60 ), Vector2( 100, 60 ), Vector2( 440, 60 ) ]
}
tracks/2/type = "value"
tracks/2/path = NodePath("Start:rect_position")
tracks/2/interp = 1
tracks/2/loop_wrap = true
tracks/2/imported = false
tracks/2/enabled = true
tracks/2/keys = {
"times": PoolRealArray( 0, 0.5, 2.5, 3 ),
"transitions": PoolRealArray( 2, 1, 2, 1 ),
"update": 0,
"values": [ Vector2( 440, 100 ), Vector2( 180, 100 ), Vector2( 120, 100 ), Vector2( -200, 100 ) ]
}
tracks/3/type = "method"
tracks/3/path = NodePath(".")
tracks/3/interp = 1
tracks/3/loop_wrap = true
tracks/3/imported = false
tracks/3/enabled = true
tracks/3/keys = {
"times": PoolRealArray( 3.4 ),
"transitions": PoolRealArray( 1 ),
"values": [ {
"args": [  ],
"method": "queue_free"
} ]
}
tracks/4/type = "value"
tracks/4/path = NodePath("Ribbon:rect_scale")
tracks/4/interp = 1
tracks/4/loop_wrap = true
tracks/4/imported = false
tracks/4/enabled = true
tracks/4/keys = {
"times": PoolRealArray( 0, 0.5, 2.5, 3 ),
"transitions": PoolRealArray( 2, 1, 2, 1 ),
"update": 0,
"values": [ Vector2( 1, 1 ), Vector2( 1, 0.25 ), Vector2( 1, 0.25 ), Vector2( 1, 1 ) ]
}
tracks/5/type = "method"
tracks/5/path = NodePath("Bam")
tracks/5/interp = 1
tracks/5/loop_wrap = true
tracks/5/imported = false
tracks/5/enabled = true
tracks/5/keys = {
"times": PoolRealArray( 0.2 ),
"transitions": PoolRealArray( 1 ),
"values": [ {
"args": [ 0.0 ],
"method": "play"
} ]
}
tracks/6/type = "method"
tracks/6/path = NodePath("Puff")
tracks/6/interp = 1
tracks/6/loop_wrap = true
tracks/6/imported = false
tracks/6/enabled = true
tracks/6/keys = {
"times": PoolRealArray( 2.4 ),
"transitions": PoolRealArray( 1 ),
"values": [ {
"args": [ 0.0 ],
"method": "play"
} ]
}

[node name="DebateStart" type="Node2D"]
z_index = 100

[node name="Ribbon" type="ColorRect" parent="."]
anchor_right = 1.0
anchor_bottom = 1.0
rect_min_size = Vector2( 320, 180 )
rect_pivot_offset = Vector2( 160, 90 )
color = Color( 0, 0, 0, 0 )

[node name="Debate" type="Label" parent="."]
margin_left = 440.0
margin_top = 60.0
margin_right = 520.0
margin_bottom = 80.0
rect_min_size = Vector2( 80, 20 )
rect_scale = Vector2( 3, 3 )
rect_pivot_offset = Vector2( 40, 10 )
custom_fonts/font = ExtResource( 1 )
text = "DS_1"
align = 1
valign = 1

[node name="Start" type="Label" parent="."]
margin_left = -200.0
margin_top = 100.0
margin_right = -120.0
margin_bottom = 120.0
rect_min_size = Vector2( 80, 20 )
rect_scale = Vector2( 3, 3 )
rect_pivot_offset = Vector2( 40, 10 )
custom_fonts/font = ExtResource( 1 )
text = "DS_2"
align = 1
valign = 1

[node name="Anim" type="AnimationPlayer" parent="."]
autoplay = "debate_start"
anims/debate_start = SubResource( 1 )

[node name="Bam" type="AudioStreamPlayer" parent="."]
stream = ExtResource( 2 )
pitch_scale = 0.2
bus = "Sfx"

[node name="Puff" type="AudioStreamPlayer" parent="."]
stream = ExtResource( 3 )
volume_db = -12.0
pitch_scale = 0.5
bus = "Sfx"
